{
  "project_info": {
    "project_number": "1072409953450",
    "project_id": "banjaigaandroid"
  },
  "client": [
    {
      "client_info": {
        "mobilesdk_app_id": "1:1072409953450:android:8f3e6c4e0ae968b4",
        "android_client_info": {
          "package_name": "com.design.hrh.banjaegaandroidapp"
        }
      },
      "oauth_client": [
        {
          "client_id": "1072409953450-h3ufc3sc4h5obfn9o3s30ok2smsvg3b5.apps.googleusercontent.com",
          "client_type": 3
        },
        {
          "client_id": "1072409953450-dcdt0h6hgm6b6u01ofluagnmtkqslauu.apps.googleusercontent.com",
          "client_type": 1,
          "android_info": {
            "package_name": "com.design.hrh.banjaegaandroidapp",
            "certificate_hash": "238ca2741627150fcc8b48ca93f45a0f372809d7"
          }
        }
      ],
      "api_key": [
        {
          "current_key": "AIzaSyD7vuc6ATR7CGuWhDdhRYfMgI_N7h7iwpw"
        }
      ],
      "services": {
        "analytics_service": {
          "status": 1
        },
        "appinvite_service": {
          "status": 1,
          "other_platform_oauth_client": []
        },
        "ads_service": {
          "status": 1
        }
      }
    }
  ],
  "configuration_version": "1"
}